[
  {
    "id": "1",
    "name": "example_1",
    "test_result": "PASS",
    "start_date": "01-12-2023 12:00:00",
    "end_date": "01-12-2023 12:00:10"
  },
  {
    "id": "2",
    "name": "example_2",
    "test_result": "FAIL",
    "start_date": "02-12-2023 13:00:00",
    "end_date": "02-12-2023 14:01:10"
  },
  {
    "id": "3",
    "name": "example_3",
    "test_result": "PASS",
    "start_date": "11-12-2023 17:45:00",
    "end_date": "11-12-2023 18:46:10"
  }
]