id,name,test_result,start_date,end_date
1,example_1,PASS,01-12-2023 12:00:00,01-12-2023 12:00:10
2,example_2,FAIL,02-12-2023 13:00:00,02-12-2023 14:01:10
3,example_3,PASS,11-12-2023 17:45:00,11-12-2023 18:46:10
